^A:\Cloud\MicroservicesCalcCPP\Debug\Generated.lib
A:\Cloud\MicroservicesCalcCPP\Generated\Debug\vcpkg.applocal.log
^A:\Cloud\MicroservicesCalcCPP\Debug\Generated.lib
A:\Cloud\MicroservicesCalcCPP\Generated\Debug\vcpkg.applocal.log
^A:\Cloud\MicroservicesCalcCPP\Debug\Generated.lib
A:\Cloud\MicroservicesCalcCPP\Generated\Debug\vcpkg.applocal.log
^A:\teme_cna\MicroservicesCalcCPP\Debug\Generated.lib
A:\teme_cna\MicroservicesCalcCPP\Generated\Debug\vcpkg.applocal.log
