^A:\CLOUD\MICROSERVICESCALCCPP\GENERATED\DEBUG\DIVISIONOPERATION.GRPC.PB.OBJ|A:\CLOUD\MICROSERVICESCALCCPP\GENERATED\DEBUG\DIVISIONOPERATION.PB.OBJ|A:\CLOUD\MICROSERVICESCALCCPP\GENERATED\DEBUG\DIVISIONREQUEST.GRPC.PB.OBJ|A:\CLOUD\MICROSERVICESCALCCPP\GENERATED\DEBUG\DIVISIONREQUEST.PB.OBJ|A:\CLOUD\MICROSERVICESCALCCPP\GENERATED\DEBUG\EMPTYRESPONSE.GRPC.PB.OBJ|A:\CLOUD\MICROSERVICESCALCCPP\GENERATED\DEBUG\EMPTYRESPONSE.PB.OBJ|A:\CLOUD\MICROSERVICESCALCCPP\GENERATED\DEBUG\MULTIPLICATIONOPERATION.GRPC.PB.OBJ|A:\CLOUD\MICROSERVICESCALCCPP\GENERATED\DEBUG\MULTIPLICATIONOPERATION.PB.OBJ|A:\CLOUD\MICROSERVICESCALCCPP\GENERATED\DEBUG\MULTIPLICATIONREQUEST.GRPC.PB.OBJ|A:\CLOUD\MICROSERVICESCALCCPP\GENERATED\DEBUG\MULTIPLICATIONREQUEST.PB.OBJ|A:\CLOUD\MICROSERVICESCALCCPP\GENERATED\DEBUG\OPERATIONRESPONSE.GRPC.PB.OBJ|A:\CLOUD\MICROSERVICESCALCCPP\GENERATED\DEBUG\OPERATIONRESPONSE.PB.OBJ|A:\CLOUD\MICROSERVICESCALCCPP\GENERATED\DEBUG\PRINTNAMEOPERATION.GRPC.PB.OBJ|A:\CLOUD\MICROSERVICESCALCCPP\GENERATED\DEBUG\PRINTNAMEOPERATION.PB.OBJ|A:\CLOUD\MICROSERVICESCALCCPP\GENERATED\DEBUG\PRINTNAMEREQUEST.GRPC.PB.OBJ|A:\CLOUD\MICROSERVICESCALCCPP\GENERATED\DEBUG\PRINTNAMEREQUEST.PB.OBJ|A:\CLOUD\MICROSERVICESCALCCPP\GENERATED\DEBUG\SUBTRACTIONOPERATION.GRPC.PB.OBJ|A:\CLOUD\MICROSERVICESCALCCPP\GENERATED\DEBUG\SUBTRACTIONOPERATION.PB.OBJ|A:\CLOUD\MICROSERVICESCALCCPP\GENERATED\DEBUG\SUBTRACTIONREQUEST.GRPC.PB.OBJ|A:\CLOUD\MICROSERVICESCALCCPP\GENERATED\DEBUG\SUBTRACTIONREQUEST.PB.OBJ|A:\CLOUD\MICROSERVICESCALCCPP\GENERATED\DEBUG\SUMOPERATION.GRPC.PB.OBJ|A:\CLOUD\MICROSERVICESCALCCPP\GENERATED\DEBUG\SUMOPERATION.PB.OBJ|A:\CLOUD\MICROSERVICESCALCCPP\GENERATED\DEBUG\SUMREQUEST.GRPC.PB.OBJ|A:\CLOUD\MICROSERVICESCALCCPP\GENERATED\DEBUG\SUMREQUEST.PB.OBJ
/OUT:"A:\CLOUD\MICROSERVICESCALCCPP\DEBUG\GENERATED.LIB" LIBPROTOBUFD.LIB GRPC.LIB /LIBPATH:"A:\CLOUD\VCPKG-MASTER\INSTALLED\X86-WINDOWS\DEBUG\LIB" /NOLOGO /MACHINE:X86 DEBUG\DIVISIONOPERATION.GRPC.PB.OBJ
DEBUG\DIVISIONOPERATION.PB.OBJ
DEBUG\DIVISIONREQUEST.GRPC.PB.OBJ
DEBUG\DIVISIONREQUEST.PB.OBJ
DEBUG\EMPTYRESPONSE.GRPC.PB.OBJ
DEBUG\EMPTYRESPONSE.PB.OBJ
DEBUG\MULTIPLICATIONOPERATION.GRPC.PB.OBJ
DEBUG\MULTIPLICATIONOPERATION.PB.OBJ
DEBUG\MULTIPLICATIONREQUEST.GRPC.PB.OBJ
DEBUG\MULTIPLICATIONREQUEST.PB.OBJ
DEBUG\OPERATIONRESPONSE.GRPC.PB.OBJ
DEBUG\OPERATIONRESPONSE.PB.OBJ
DEBUG\PRINTNAMEOPERATION.GRPC.PB.OBJ
DEBUG\PRINTNAMEOPERATION.PB.OBJ
DEBUG\PRINTNAMEREQUEST.GRPC.PB.OBJ
DEBUG\PRINTNAMEREQUEST.PB.OBJ
DEBUG\SUBTRACTIONOPERATION.GRPC.PB.OBJ
DEBUG\SUBTRACTIONOPERATION.PB.OBJ
DEBUG\SUBTRACTIONREQUEST.GRPC.PB.OBJ
DEBUG\SUBTRACTIONREQUEST.PB.OBJ
DEBUG\SUMOPERATION.GRPC.PB.OBJ
DEBUG\SUMOPERATION.PB.OBJ
DEBUG\SUMREQUEST.GRPC.PB.OBJ
DEBUG\SUMREQUEST.PB.OBJ
^A:\TEME_CNA\MICROSERVICESCALCCPP\GENERATED\DEBUG\DIVISIONOPERATION.GRPC.PB.OBJ|A:\TEME_CNA\MICROSERVICESCALCCPP\GENERATED\DEBUG\DIVISIONOPERATION.PB.OBJ|A:\TEME_CNA\MICROSERVICESCALCCPP\GENERATED\DEBUG\DIVISIONREQUEST.GRPC.PB.OBJ|A:\TEME_CNA\MICROSERVICESCALCCPP\GENERATED\DEBUG\DIVISIONREQUEST.PB.OBJ|A:\TEME_CNA\MICROSERVICESCALCCPP\GENERATED\DEBUG\EMPTYRESPONSE.GRPC.PB.OBJ|A:\TEME_CNA\MICROSERVICESCALCCPP\GENERATED\DEBUG\EMPTYRESPONSE.PB.OBJ|A:\TEME_CNA\MICROSERVICESCALCCPP\GENERATED\DEBUG\MULTIPLICATIONOPERATION.GRPC.PB.OBJ|A:\TEME_CNA\MICROSERVICESCALCCPP\GENERATED\DEBUG\MULTIPLICATIONOPERATION.PB.OBJ|A:\TEME_CNA\MICROSERVICESCALCCPP\GENERATED\DEBUG\MULTIPLICATIONREQUEST.GRPC.PB.OBJ|A:\TEME_CNA\MICROSERVICESCALCCPP\GENERATED\DEBUG\MULTIPLICATIONREQUEST.PB.OBJ|A:\TEME_CNA\MICROSERVICESCALCCPP\GENERATED\DEBUG\OPERATIONRESPONSE.GRPC.PB.OBJ|A:\TEME_CNA\MICROSERVICESCALCCPP\GENERATED\DEBUG\OPERATIONRESPONSE.PB.OBJ|A:\TEME_CNA\MICROSERVICESCALCCPP\GENERATED\DEBUG\PRINTNAMEOPERATION.GRPC.PB.OBJ|A:\TEME_CNA\MICROSERVICESCALCCPP\GENERATED\DEBUG\PRINTNAMEOPERATION.PB.OBJ|A:\TEME_CNA\MICROSERVICESCALCCPP\GENERATED\DEBUG\PRINTNAMEREQUEST.GRPC.PB.OBJ|A:\TEME_CNA\MICROSERVICESCALCCPP\GENERATED\DEBUG\PRINTNAMEREQUEST.PB.OBJ|A:\TEME_CNA\MICROSERVICESCALCCPP\GENERATED\DEBUG\SUBTRACTIONOPERATION.GRPC.PB.OBJ|A:\TEME_CNA\MICROSERVICESCALCCPP\GENERATED\DEBUG\SUBTRACTIONOPERATION.PB.OBJ|A:\TEME_CNA\MICROSERVICESCALCCPP\GENERATED\DEBUG\SUBTRACTIONREQUEST.GRPC.PB.OBJ|A:\TEME_CNA\MICROSERVICESCALCCPP\GENERATED\DEBUG\SUBTRACTIONREQUEST.PB.OBJ|A:\TEME_CNA\MICROSERVICESCALCCPP\GENERATED\DEBUG\SUMOPERATION.GRPC.PB.OBJ|A:\TEME_CNA\MICROSERVICESCALCCPP\GENERATED\DEBUG\SUMOPERATION.PB.OBJ|A:\TEME_CNA\MICROSERVICESCALCCPP\GENERATED\DEBUG\SUMREQUEST.GRPC.PB.OBJ|A:\TEME_CNA\MICROSERVICESCALCCPP\GENERATED\DEBUG\SUMREQUEST.PB.OBJ
/OUT:"A:\TEME_CNA\MICROSERVICESCALCCPP\DEBUG\GENERATED.LIB" LIBPROTOBUFD.LIB GRPC.LIB /LIBPATH:"A:\CLOUD\VCPKG-MASTER\INSTALLED\X86-WINDOWS\DEBUG\LIB" /NOLOGO /MACHINE:X86 DEBUG\DIVISIONOPERATION.GRPC.PB.OBJ
DEBUG\DIVISIONOPERATION.PB.OBJ
DEBUG\DIVISIONREQUEST.GRPC.PB.OBJ
DEBUG\DIVISIONREQUEST.PB.OBJ
DEBUG\EMPTYRESPONSE.GRPC.PB.OBJ
DEBUG\EMPTYRESPONSE.PB.OBJ
DEBUG\MULTIPLICATIONOPERATION.GRPC.PB.OBJ
DEBUG\MULTIPLICATIONOPERATION.PB.OBJ
DEBUG\MULTIPLICATIONREQUEST.GRPC.PB.OBJ
DEBUG\MULTIPLICATIONREQUEST.PB.OBJ
DEBUG\OPERATIONRESPONSE.GRPC.PB.OBJ
DEBUG\OPERATIONRESPONSE.PB.OBJ
DEBUG\PRINTNAMEOPERATION.GRPC.PB.OBJ
DEBUG\PRINTNAMEOPERATION.PB.OBJ
DEBUG\PRINTNAMEREQUEST.GRPC.PB.OBJ
DEBUG\PRINTNAMEREQUEST.PB.OBJ
DEBUG\SUBTRACTIONOPERATION.GRPC.PB.OBJ
DEBUG\SUBTRACTIONOPERATION.PB.OBJ
DEBUG\SUBTRACTIONREQUEST.GRPC.PB.OBJ
DEBUG\SUBTRACTIONREQUEST.PB.OBJ
DEBUG\SUMOPERATION.GRPC.PB.OBJ
DEBUG\SUMOPERATION.PB.OBJ
DEBUG\SUMREQUEST.GRPC.PB.OBJ
DEBUG\SUMREQUEST.PB.OBJ
