^A:\CLOUD\MICROSERVICESCALCCPP\DEBUG\GENERATED.LIB|A:\CLOUD\MICROSERVICESCALCCPP\SERVER\X64\DEBUG\SERVER.OBJ
A:\CLOUD\MICROSERVICESCALCCPP\X64\DEBUG\SERVER.EXE
A:\CLOUD\MICROSERVICESCALCCPP\X64\DEBUG\SERVER.ILK
A:\CLOUD\MICROSERVICESCALCCPP\X64\DEBUG\SERVER.PDB
