^A:\CLOUD\MICROSERVICESCALCCPP\DEBUG\GENERATED.LIB|A:\CLOUD\MICROSERVICESCALCCPP\SERVER\DEBUG\ADDITIONSERVICEIMPL.OBJ|A:\CLOUD\MICROSERVICESCALCCPP\SERVER\DEBUG\SERVER.OBJ
/OUT:"A:\CLOUD\MICROSERVICESCALCCPP\DEBUG\SERVER.EXE" /INCREMENTAL /NOLOGO /LIBPATH:"A:\CLOUD\VCPKG-MASTER\INSTALLED\X86-WINDOWS\DEBUG\LIB" /LIBPATH:"A:\CLOUD\VCPKG-MASTER\INSTALLED\X86-WINDOWS\DEBUG\LIB" /LIBPATH:"A:\CLOUD\VCPKG-MASTER\INSTALLED\X86-WINDOWS\DEBUG\LIB\MANUAL-LINK" ABSL_BASE.LIB ABSL_STRINGS.LIB ABSL_THROW_DELEGATE.LIB ADDRESS_SORTING.LIB CARES.LIB GPR.LIB GRPC.LIB GRPC++.LIB LIBCRYPTO.LIB LIBPROTOBUFD.LIB LIBSSL.LIB UPB.LIB WS2_32.LIB ZLIBD.LIB "A:\CLOUD\VCPKG-MASTER\INSTALLED\X86-WINDOWS\DEBUG\LIB\*.LIB" /MANIFEST /MANIFESTUAC:"level='asInvoker' uiAccess='false'" /manifest:embed /DEBUG:FASTLINK /PDB:"A:\CLOUD\MICROSERVICESCALCCPP\DEBUG\SERVER.PDB" /SUBSYSTEM:CONSOLE /TLBID:1 /DYNAMICBASE /NXCOMPAT /IMPLIB:"A:\CLOUD\MICROSERVICESCALCCPP\DEBUG\SERVER.LIB" /MACHINE:X86 DEBUG\ADDITIONSERVICEIMPL.OBJ
DEBUG\SERVER.OBJ
A:\CLOUD\MICROSERVICESCALCCPP\DEBUG\GENERATED.LIB
^A:\TEME_CNA\MICROSERVICESCALCCPP\DEBUG\GENERATED.LIB|A:\TEME_CNA\MICROSERVICESCALCCPP\SERVER\DEBUG\ADDITIONSERVICEIMPL.OBJ|A:\TEME_CNA\MICROSERVICESCALCCPP\SERVER\DEBUG\SERVER.OBJ
/OUT:"A:\TEME_CNA\MICROSERVICESCALCCPP\DEBUG\SERVER.EXE" /INCREMENTAL /NOLOGO /LIBPATH:"A:\CLOUD\VCPKG-MASTER\INSTALLED\X86-WINDOWS\DEBUG\LIB" /LIBPATH:"A:\CLOUD\VCPKG-MASTER\INSTALLED\X86-WINDOWS\DEBUG\LIB" /LIBPATH:"A:\CLOUD\VCPKG-MASTER\INSTALLED\X86-WINDOWS\DEBUG\LIB\MANUAL-LINK" ABSL_BASE.LIB ABSL_STRINGS.LIB ABSL_THROW_DELEGATE.LIB ADDRESS_SORTING.LIB CARES.LIB GPR.LIB GRPC.LIB GRPC++.LIB LIBCRYPTO.LIB LIBPROTOBUFD.LIB LIBSSL.LIB UPB.LIB WS2_32.LIB ZLIBD.LIB "A:\CLOUD\VCPKG-MASTER\INSTALLED\X86-WINDOWS\DEBUG\LIB\*.LIB" /MANIFEST /MANIFESTUAC:"level='asInvoker' uiAccess='false'" /manifest:embed /DEBUG:FASTLINK /PDB:"A:\TEME_CNA\MICROSERVICESCALCCPP\DEBUG\SERVER.PDB" /SUBSYSTEM:CONSOLE /TLBID:1 /DYNAMICBASE /NXCOMPAT /IMPLIB:"A:\TEME_CNA\MICROSERVICESCALCCPP\DEBUG\SERVER.LIB" /MACHINE:X86 DEBUG\ADDITIONSERVICEIMPL.OBJ
DEBUG\SERVER.OBJ
A:\TEME_CNA\MICROSERVICESCALCCPP\DEBUG\GENERATED.LIB
